/**********************************************************************************
*                             SBENDs and MULTIPOLES in MUs
***********************************************************************************/

k1prbhf            =      0.05705266952 ;
k1prbhd            =     -0.05711581728 ;
k2prbhf            =                  0 ;
k2prbhd            =                  0 ;
k2prmp             =     -0.01858039299 ;
k2prmpj            =      0.03934772381 ;
k3prmpf            =      0.05812457857 ;
k3prmpd            =      -0.1320148496 ;

/**********************************************************************************
*                                    PFW and F8L
***********************************************************************************/

k1prpfwf           =   -0.0001009094244 ;
k1prpfwd           =    5.894593051e-05 ;
k2prpfwf           =    -0.002222356465 ;
k2prpfwd           =    -0.003987126033 ;
k3prpfwf           =      -0.3425892323 ;
k3prpfwd           =       0.3331200184 ;
k1prf8l            =                  0 ;

/**********************************************************************************
*                                    Injection dipoles
***********************************************************************************/

kpibsw26           =                  0 ;
kpibsw40           =                  0 ;
kpibsw41           =                  0 ;
kpibsw42           =                  0 ;
kpibsw43           =                  0 ;
kpibsw44           =                  0 ;

/**********************************************************************************
*                                    Extraction dipoles
***********************************************************************************/

kpebsw12           =                  0 ;
kpebsw14           =                  0 ;
kpebsw20           =                  0 ;
kpebsw22           =                  0 ;
kpebsw23           =    -0.001570859932 ;
kpebsw57           =    0.0008303897955 ;

/**********************************************************************************
*                                      Quadrupoles
***********************************************************************************/

kf                 =                  0 ;
kd                 =                  0 ;
kprqse             =       0.1224767158 ;
kpeqke16           =                  0 ;
kpiqlb             =                  0 ;

/**********************************************************************************
*                                       Sextupoles
***********************************************************************************/

kprxno39           =                  0 ;
kprxno55           =                  0 ;
kprxno             =                  0 ;
kprxse             =         1.41396906 ;

/**********************************************************************************
*                                       Octupoles
***********************************************************************************/

kprono39           =                  0 ;
kprono55           =                  0 ;
kprodn             =                  0 ;

/**********************************************************************************
*                                   KNOBS
***********************************************************************************/

!-------------------------------------------------
! Proton injection bump
!-------------------------------------------------

bsw42_x_mm_abs_active  =              0 ;


!-------------------------------------------------
! Ion injection bump
!-------------------------------------------------

smh26_x_mm_abs_active  =              0 ;


!-------------------------------------------------
! Extraction bump
!-------------------------------------------------

seh23_x_mm_abs_active  =              1 ;
smh57_x_mm_abs_active  =              1 ;

seh23_x_mm_abs      =                -34 ;
smh57_x_mm_abs      =              -18.6 ;

dkPESEH23_x_abs     =     4.62017627e-05 ;
dkPESMH57_x_abs     =   -4.464461266e-05 ;

kPEBSW23 := dkPESEH23_x_abs * seh23_x_mm_abs;
kPEBSW57 := dkPESMH57_x_abs * smh57_x_mm_abs;

